{
    "key": "group_5cf67b21cdfcb",
    "title": "Theme - General",
    "fields": [
        {
            "key": "field_5cf67cae31099",
            "label": "Font heading",
            "name": "font_heading",
            "type": "Fonts",
            "instructions": "",
            "required": 0,
            "conditional_logic": 0,
            "wrapper": {
                "width": "",
                "class": "",
                "id": ""
            },
            "display_properties": [
                "font_family",
                "font_weight",
                "font_style",
                "letter_spacing",
                "text_color"
            ],
            "required_properties": "",
            "font_size": 15,
            "font_family": "Muli",
            "font_weight": 700,
            "font_style": "normal",
            "font_variant": "normal",
            "font_stretch": "normal",
            "line_height": "",
            "letter_spacing": 0,
            "text_align": "left",
            "text_color": "#484848",
            "text_decoration": "none",
            "text_transform": "none"
        },
        {
            "key": "field_5d09eebcfc7b3",
            "label": "Base font",
            "name": "base_font",
            "type": "Fonts",
            "instructions": "",
            "required": 0,
            "conditional_logic": 0,
            "wrapper": {
                "width": "",
                "class": "",
                "id": ""
            },
            "display_properties": [
                "font_size",
                "font_family",
                "font_weight",
                "font_style",
                "letter_spacing",
                "text_color",
                "text_transform"
            ],
            "required_properties": "",
            "font_size": 16,
            "font_family": "Muli",
            "font_weight": 400,
            "font_style": "normal",
            "font_variant": "normal",
            "font_stretch": "normal",
            "line_height": 25,
            "letter_spacing": 0,
            "text_align": "left",
            "text_color": "#484848",
            "text_decoration": "none",
            "text_transform": "none"
        },
        {
            "key": "field_5d08c9add5663",
            "label": "Enable rounded corners",
            "name": "enable-rounded",
            "type": "true_false",
            "instructions": "",
            "required": 0,
            "conditional_logic": 0,
            "wrapper": {
                "width": "",
                "class": "",
                "id": ""
            },
            "message": "",
            "default_value": 1,
            "ui": 1,
            "ui_on_text": "",
            "ui_off_text": ""
        },
        {
            "key": "field_5d08ca66d5664",
            "label": "Enable shadows",
            "name": "enable-shadows",
            "type": "true_false",
            "instructions": "",
            "required": 0,
            "conditional_logic": 0,
            "wrapper": {
                "width": "",
                "class": "",
                "id": ""
            },
            "message": "",
            "default_value": 0,
            "ui": 1,
            "ui_on_text": "",
            "ui_off_text": ""
        },
        {
            "key": "field_5d5143a212269",
            "label": "Share buttons",
            "name": "share_buttons",
            "type": "true_false",
            "instructions": "",
            "required": 0,
            "conditional_logic": 0,
            "wrapper": {
                "width": "",
                "class": "",
                "id": ""
            },
            "message": "",
            "default_value": 1,
            "ui": 1,
            "ui_on_text": "On",
            "ui_off_text": "Off"
        }
    ],
    "location": [
        [
            {
                "param": "options_page",
                "operator": "==",
                "value": "acf-options-general"
            }
        ]
    ],
    "menu_order": 0,
    "position": "normal",
    "style": "default",
    "label_placement": "top",
    "instruction_placement": "label",
    "hide_on_screen": "",
    "active": 1,
    "description": "",
    "modified": 1565707619
}